<?xml version="1.0" encoding="utf-8"?>
<!-- Generator: Adobe Illustrator 16.0.0, SVG Export Plug-In . SVG Version: 6.00 Build 0)  -->
<!DOCTYPE svg PUBLIC "-//W3C//DTD SVG 1.1//EN" "http://www.w3.org/Graphics/SVG/1.1/DTD/svg11.dtd">
<svg version="1.1" id="Layer_1" xmlns="http://www.w3.org/2000/svg" xmlns:xlink="http://www.w3.org/1999/xlink" x="0px" y="0px"
	 width="110px" height="45px" viewBox="0 0 110 45" enable-background="new 0 0 110 45" xml:space="preserve">
<g>
	<path fill-rule="evenodd" clip-rule="evenodd" fill="#211C19" d="M5.01,24.615c0-4.088,0.006-8.177-0.009-12.265
		C5,11.93,5.067,11.779,5.542,11.784c3.904,0.021,7.809-0.048,11.711,0.036c1.945,0.042,3.853,0.428,5.535,1.559
		c1.604,1.075,2.394,2.622,2.683,4.462c0.227,1.456,0.149,2.907-0.352,4.302c-0.706,1.968-2.17,3.187-4.073,3.917
		c-1.612,0.619-3.295,0.835-5.018,0.893c-1.02,0.035-2.038,0.064-3.057,0.053c-0.391-0.005-0.479,0.104-0.477,0.482
		c0.017,3.115-0.002,6.232,0.021,9.35c0.004,0.477-0.084,0.624-0.593,0.614c-2.131-0.033-4.262-0.026-6.393-0.005
		C5.114,37.451,4.997,37.363,5,36.928C5.019,32.825,5.01,28.72,5.01,24.615z M12.501,19.39c0.001,0,0.002,0,0.003,0
		c0,1.58,0.01,3.162-0.007,4.745c-0.004,0.333,0.083,0.447,0.424,0.426c0.591-0.033,1.181-0.031,1.774-0.083
		c1.325-0.117,2.336-0.69,2.891-1.906c0.787-1.73,0.763-3.544,0.408-5.369c-0.307-1.575-1.282-2.541-2.833-2.859
		c-0.726-0.148-1.459-0.026-2.186-0.084c-0.393-0.03-0.488,0.114-0.483,0.485C12.512,16.291,12.501,17.841,12.501,19.39z"/>
	<path fill-rule="evenodd" clip-rule="evenodd" fill="#211C19" d="M43.012,37.437c-1.125,0-2.25-0.009-3.375,0.008
		c-0.307,0.004-0.431-0.076-0.513-0.396c-0.402-1.57-0.849-3.129-1.26-4.7c-0.087-0.333-0.217-0.461-0.583-0.456
		c-2.285,0.019-4.569,0.014-6.854,0.002c-0.297-0.002-0.426,0.066-0.513,0.378c-0.451,1.609-0.945,3.203-1.406,4.81
		c-0.078,0.27-0.179,0.376-0.478,0.364c-0.733-0.028-1.466-0.023-2.199-0.002c-0.317,0.009-0.355-0.069-0.268-0.364
		c1.243-4.167,2.471-8.336,3.708-12.505c1.229-4.139,2.469-8.274,3.685-12.417c0.096-0.326,0.255-0.367,0.539-0.367
		c1.926,0.01,3.854,0.012,5.779-0.005c0.297-0.002,0.41,0.096,0.483,0.364c0.674,2.454,1.358,4.907,2.044,7.358
		c1.078,3.859,2.158,7.722,3.239,11.581c0.558,1.994,1.118,3.991,1.681,5.985c0.074,0.262,0.045,0.376-0.284,0.371
		C45.296,37.425,44.154,37.437,43.012,37.437z M37.031,29.253c-1.004-3.69-1.995-7.336-2.986-10.981
		c-0.035,0.002-0.068,0.004-0.101,0.007c-1.04,3.65-2.08,7.298-3.127,10.975C32.904,29.253,34.931,29.253,37.031,29.253z"/>
	<path fill-rule="evenodd" clip-rule="evenodd" fill="#D72B28" d="M76.138,19.408c4.233-3.914,8.468-7.826,12.718-11.753
		c0.173,0.248,0.112,0.457,0.112,0.652c0.007,1.651,0.052,3.306-0.007,4.954c-0.167,4.541,0.023,9.086-0.098,13.626
		c-0.055,2.039-0.041,4.079-0.053,6.118c-0.004,0.505-0.363,0.712-0.641,0.979c-1.028,0.979-2.089,1.93-3.127,2.902
		c-1.732,1.623-3.458,3.253-5.188,4.881c-0.07,0.066-0.131,0.19-0.242,0.159c-0.152-0.042-0.104-0.199-0.1-0.307
		c0.098-3.077,0.02-6.158,0.093-9.235c0.022-0.949,0.046-1.899,0.058-2.849c0.036-3.419,0.059-6.837,0.082-10.256
		c0.006-0.654,0-0.647-0.604-0.493c-0.979,0.248-1.96,0.485-2.94,0.729C76.181,19.479,76.159,19.444,76.138,19.408z"/>
	<path fill-rule="evenodd" clip-rule="evenodd" fill="#211C19" d="M46.07,11.796c2.518,0,5.004,0.003,7.491-0.005
		c0.207,0,0.283,0.086,0.36,0.271c1.361,3.253,2.733,6.504,4.102,9.752c0.301,0.712,0.604,1.421,0.932,2.194
		c1.059-2.746,2.09-5.419,3.119-8.094c0.485-1.259,0.973-2.518,1.441-3.781c0.098-0.264,0.223-0.354,0.51-0.345
		c0.732,0.023,1.466,0.017,2.197,0.002c0.316-0.005,0.424,0.029,0.282,0.388c-1.104,2.811-2.19,5.628-3.274,8.446
		c-0.904,2.346-1.794,4.699-2.701,7.043c-0.079,0.205-0.074,0.397-0.074,0.598c-0.002,2.913-0.009,5.823,0.007,8.735
		c0.003,0.357-0.085,0.447-0.444,0.445c-2.215-0.019-4.43-0.017-6.646,0c-0.344,0.002-0.417-0.103-0.414-0.426
		c0.012-2.86,0.004-5.721,0.009-8.581c0-0.257-0.042-0.49-0.146-0.733c-1.686-3.921-3.362-7.848-5.042-11.771
		c-0.539-1.257-1.084-2.514-1.622-3.77C46.113,12.061,46.103,11.938,46.07,11.796z"/>
	<path fill-rule="evenodd" clip-rule="evenodd" fill="#D72B28" d="M87.102,38.265c0.563-0.606,1.125-1.216,1.689-1.825
		c0.207-0.224,0.506-0.159,0.758-0.195c2.75-0.393,5.191-1.47,7.371-3.19c2.295-1.812,3.939-4.098,4.95-6.82
		c0.866-2.337,1.179-4.752,0.86-7.251c-0.248-1.941-0.79-3.786-1.715-5.499c-1.528-2.832-3.733-5.007-6.599-6.494
		c-1.887-0.98-3.89-1.58-6.017-1.711c-4.892-0.303-9.07,1.28-12.473,4.816c-2.314,2.405-3.689,5.28-4.141,8.588
		c-0.643,4.71,0.678,8.846,3.715,12.455c0.476,0.566,1.01,1.1,1.605,1.557c0.234,0.179,0.373,0.39,0.402,0.719
		c0.035,0.385,0.008,0.775,0.096,1.166c0.08,0.356,0.059,0.737,0.082,1.108c-5.459-3.103-9.834-10.905-7.672-19.189
		C72.43,7.241,80.814,2.396,88.734,3.144c10.289,0.971,16.525,9.571,16.257,18.197c-0.289,9.247-7.593,16.629-16.51,17.152
		c-0.335,0-0.669-0.005-1.003-0.002C87.301,38.493,87.136,38.493,87.102,38.265z"/>
	<path fill-rule="evenodd" clip-rule="evenodd" fill="#F9F9F8" d="M12.501,19.39c0-1.549,0.011-3.099-0.007-4.646
		c-0.005-0.371,0.09-0.516,0.483-0.485c0.727,0.058,1.459-0.064,2.186,0.084c1.551,0.318,2.526,1.284,2.833,2.859
		c0.354,1.825,0.378,3.639-0.408,5.369c-0.555,1.216-1.566,1.789-2.891,1.906c-0.594,0.052-1.183,0.05-1.774,0.083
		c-0.341,0.021-0.428-0.093-0.424-0.426c0.017-1.583,0.007-3.165,0.007-4.745C12.504,19.39,12.502,19.39,12.501,19.39z"/>
	<path fill-rule="evenodd" clip-rule="evenodd" fill="#F9F9F8" d="M37.031,29.253c-2.1,0-4.126,0-6.214,0
		c1.047-3.677,2.087-7.324,3.127-10.975c0.033-0.003,0.066-0.005,0.101-0.007C35.036,21.917,36.026,25.563,37.031,29.253z"/>
</g>
</svg>
